{
  "Version": "2.0",
  "BatchDataSet": {
    "Batch": {
      "Broker": {
        "SLABrokerNumber": 123456789
      },
      "BrokerBatchNumber": "TEST000000001",
      "BrokerBatchDate": "2021-04-01",
      "BatchNotes": "Batch notes",
      "LateFilingExplanation": "Late filing explanation",
      "BatchDocuments": {
        "FolderName": "docs"
      },
      "Policies": [
        {
          "Broker": {
            "SLABrokerNumber": 123456789
          },
          "CustomPolicyId": "ID00001",
          "PolicyNumber": "Policy_SL1_New",
          "PreviousPolicyNumber": "NUM00000",
          "BinderNumber": "BINDER00001",
          "Insured": {
            "Name": "Insured Name",
            "Address": {
              "AddressLine1": "Address line 1",
              "AddressLine2": "Address line 2",
              "City": "San Francisco",
              "StateOrProvince": "CA",
              "PostalCode": "94111",
              "Country": "USA"
            }
          },
          "SecondaryInsuredName": "Secondary Insured Name",
          "InsuredDbaName": "Insured DBA Name",
          "IsMultipleStatePolicy": false,
          "IsMasterPolicy": false,
          "ExemptCommercialPurchaser": false,
          "Transactions": [
            {
              "CustomTransactionId": "CustomTxId00001",
              "TransactionType": "N",
              "EndorsementNumber": "End#00001",
              "EffectiveDate": "2021-02-01",
              "ExpirationDate": "2022-02-01",
              "GoodUntilCancelled": true,
              "Notes": "SL1 notes",
              "LateFilingExplanation": "SL1 Late Filing Explanation",
              "Premium": 2000.01,
              "InvoiceDate": "2021-02-01",
              "Coverages": [
                {
                  "CoverageCode": 9999,
                  "CoveragePremium": 99.99,
                  "Insurer": {
                    "Name": "ZURICH VERSICHERUNG AG",
                    "NAICNumber": "AA-1460190"
                  }
                }
              ],
              "Fees": [
                {
                  "FeeType": "Other",
                  "FeeDescription": "A fee description",
                  "IncludeInPremium": false,
                  "FeeAmount": 49.99
                }
              ],
              "CaliforniaPercentAllocable": 100,
              "SL1": {
                "ExportOrDiligentSearch": "DiligentSearchReport",
                "CaliforniaPremium": 12641003.72,
                "BrokerName": "Sample Broker Name",
                "BrokerLicenseNumber": "88888",
                "Organization": {
                  "Name": "Organization Name",
                  "LicenseNumber": "88888"
                },
                "Insured": {
                  "Name": "SL1 Insured Name",
                  "Address": {
                    "AddressLine1": "SL1 Address 1",
                    "AddressLine2": "SL1 Address 2",
                    "City": "SL1 Insured City",
                    "StateOrProvince": "CA",
                    "PostalCode": "111111",
                    "Country": "USA"
                  }
                },
                "RiskDescription": "Sample Risk Description",
                "RiskLocation": {
                  "AddressLine1": "Risk Address Line 1",
                  "AddressLine2": "Risk Address Line 2",
                  "City": "Sample Risk City",
                  "StateOrProvince": "CA",
                  "PostalCode": "222222",
                  "Country": "USA"
                },
                "VariousLocations": false,
                "ExportOrCoverageCodes": [
                  {
                    "CoverageCode": 9999
                  }
                ],
                "NonAdmittedInsurers": [
                  {
                    "NonAdmittedInsurerName": "Sample Non Admiited Insurer Name 1",
                    "NAICNumber": "NAICNumber2",
                    "PremiumPercentage": 10.50
                  },
                  {
                    "NonAdmittedInsurerName": "Sample Non Admiited Insurer Name 2",
                    "NAICNumber": "NAICNumber1",
                    "PremiumPercentage": 20.60
                  }
                ],
                "DateSigned": "2021-04-01"
              },
              "TransactionDocuments": {
                "Documents": [
                  {
                    "CustomDocumentId": "BINDERDocID",
                    "DocumentType": "DECLARATIONS PAGE",
                    "DocumentName": "doc-binder.pdf",
                    "SubmissionDocumentId": 1
                  },
                  {
                    "CustomDocumentId": "SL2DocID",
                    "DocumentType": "SL2",
                    "DocumentName": "doc-sl2.pdf",
                    "SubmissionDocumentId": 2
                  }
                ]
              },
              "SubmissionTransactionId": 9
            }
          ],
          "SubmissionPolicyId": 63
        }
      ]
    },
    "ReportingState": "??"
  }
}